<svg width="16" height="16" viewBox="0 0 16 16" fill="none" xmlns="http://www.w3.org/2000/svg">
<path fill-rule="evenodd" clip-rule="evenodd" d="M7.88818 0.257385C3.55306 0.257385 0.0385742 3.77183 0.0385742 8.10733C0.0385742 12.4427 3.55306 15.9571 7.88818 15.9571C12.224 15.9571 15.7382 12.4427 15.7382 8.10733C15.7382 3.77183 12.224 0.257385 7.88818 0.257385ZM7.88818 5.79848C8.26544 5.79848 9.10283 6.30614 9.2737 7.18371L10.6592 6.26028C10.6592 6.26028 9.96872 5.06558 8.81194 4.59795V3.48965H7.42665V4.43696C5.77864 4.61587 5.57986 5.7758 5.57986 6.722C5.57986 8.14715 6.95152 8.67879 8.02313 9.09413C8.71006 9.36037 9.2737 9.57882 9.2737 9.95421C9.2737 10.88 8.75749 10.8792 7.97851 10.8778L7.88818 10.8777C7.05974 10.8777 6.96535 9.49256 6.96535 9.49256L5.57984 10.4161C5.57984 10.4161 6.2274 11.8844 7.42663 12.2027V13.6483H8.81191V12.1803C10.11 11.9232 10.6592 11.0869 10.6592 9.95423C10.6592 8.7537 9.50586 8.30391 8.48811 7.90699C7.68446 7.59356 6.96534 7.31311 6.96534 6.72202C6.96535 5.85375 7.51163 5.79848 7.88818 5.79848ZM1.42385 8.10733C1.42385 11.6775 4.31829 14.5719 7.88818 14.5719C11.4588 14.5719 14.3534 11.6775 14.3534 8.10733C14.3534 4.53696 11.4588 1.64276 7.88818 1.64276C4.31829 1.64276 1.42385 4.53696 1.42385 8.10733Z" fill="#FF0000"/>
</svg>
